{
    "stat": "ok",
    "photos": {
        "photo": [
            {
                "isfamily": 0,
                "id": "15642377962",
                "owner": "65988573@N00",
                "secret": "8865b93527",
                "server": "3943",
                "farm": 4,
                "title": "IMG_20140706_140334",
                "ispublic": 1,
                "isfriend": 0
            },
            {
                "isfamily": 0,
                "id": "15638863271",
                "owner": "65988573@N00",
                "secret": "62e9209da7",
                "server": "5610",
                "farm": 6,
                "title": "IMG_20140831_135729",
                "ispublic": 1,
                "isfriend": 0
            },
            {
                "isfamily": 0,
                "id": "15455418918",
                "owner": "65988573@N00",
                "secret": "9ee53f45fd",
                "server": "5608",
                "farm": 6,
                "title": "IMG_20140831_135640",
                "ispublic": 1,
                "isfriend": 0
            },
            {
                "isfamily": 0,
                "id": "15638859611",
                "owner": "65988573@N00",
                "secret": "39b9c08b33",
                "server": "3945",
                "farm": 4,
                "title": "IMG_20140607_194913",
                "ispublic": 1,
                "isfriend": 0
            },
            {
                "isfamily": 0,
                "id": "15455416108",
                "owner": "65988573@N00",
                "secret": "ee6f3b2ce7",
                "server": "5606",
                "farm": 6,
                "title": "IMG_20141012_142544",
                "ispublic": 1,
                "isfriend": 0
            },
            {
                "isfamily": 0,
                "id": "15641549305",
                "owner": "65988573@N00",
                "secret": "817407a0c1",
                "server": "5599",
                "farm": 6,
                "title": "IMG_20140619_160835",
                "ispublic": 1,
                "isfriend": 0
            },
            {
                "isfamily": 0,
                "id": "15021381983",
                "owner": "65988573@N00",
                "secret": "ddfde648d4",
                "server": "3950",
                "farm": 4,
                "title": "IMG_20140831_135652",
                "ispublic": 1,
                "isfriend": 0
            },
            {
                "isfamily": 0,
                "id": "15641547875",
                "owner": "65988573@N00",
                "secret": "dc4ef9c143",
                "server": "5602",
                "farm": 6,
                "title": "IMG_20140328_175643",
                "ispublic": 1,
                "isfriend": 0
            },
            {
                "isfamily": 0,
                "id": "15638860041",
                "owner": "65988573@N00",
                "secret": "0e250fc0d3",
                "server": "3956",
                "farm": 4,
                "title": "IMG_20141012_143358",
                "ispublic": 1,
                "isfriend": 0
            },
            {
                "isfamily": 0,
                "id": "15455562857",
                "owner": "65988573@N00",
                "secret": "0971aee15a",
                "server": "5611",
                "farm": 6,
                "title": "IMG_20140607_193538",
                "ispublic": 1,
                "isfriend": 0
            }
        ],
        "total": "16035171",
        "perpage": 10,
        "pages": 1603518,
        "page": 1
    }
}
